{
	"info": {
		"_postman_id": "08f506c0-4498-4feb-b044-832e6f584363",
		"name": "eccomerce",
		"schema": "https://schema.getpostman.com/json/collection/v2.1.0/collection.json"
	},
	"item": [
		{
			"name": "auth",
			"item": [
				{
					"name": "Register",
					"event": [
						{
							"listen": "test",
							"script": {
								"exec": [
									""
								],
								"type": "text/javascript"
							}
						}
					],
					"request": {
						"method": "POST",
						"header": [
							{
								"key": "Authorization",
								"value": "admin",
								"type": "text"
							}
						],
						"body": {
							"mode": "raw",
							"raw": "{\n    \"username\": \"Pepe\",\n    \"password\": \"123456\",\n    \"email\": \"pepe@gmail.com\"\n}",
							"options": {
								"raw": {
									"language": "json"
								}
							}
						},
						"url": {
							"raw": "{{baseUrl}}/api/auth/register",
							"host": [
								"{{baseUrl}}"
							],
							"path": [
								"api",
								"auth",
								"register"
							]
						}
					},
					"response": []
				},
				{
					"name": "Login",
					"event": [
						{
							"listen": "test",
							"script": {
								"exec": [
									"const jsonData = JSON.parse(responseBody);",
									"if(jsonData.token)",
									"    postman.setEnvironmentVariable(\"token\", jsonData.token);"
								],
								"type": "text/javascript"
							}
						}
					],
					"request": {
						"method": "POST",
						"header": [
							{
								"key": "Authorization",
								"value": "admin",
								"type": "text"
							}
						],
						"body": {
							"mode": "raw",
							"raw": "{\n    \"username\": \"Pepe\",\n    \"password\": \"123456\"\n}",
							"options": {
								"raw": {
									"language": "json"
								}
							}
						},
						"url": {
							"raw": "{{baseUrl}}/api/auth/login",
							"host": [
								"{{baseUrl}}"
							],
							"path": [
								"api",
								"auth",
								"login"
							]
						}
					},
					"response": []
				},
				{
					"name": "me",
					"event": [
						{
							"listen": "test",
							"script": {
								"exec": [
									""
								],
								"type": "text/javascript"
							}
						}
					],
					"request": {
						"auth": {
							"type": "bearer",
							"bearer": [
								{
									"key": "token",
									"value": "{{token}}",
									"type": "string"
								}
							]
						},
						"method": "GET",
						"header": [
							{
								"key": "Authorization",
								"value": "admin",
								"type": "text"
							}
						],
						"url": {
							"raw": "{{baseUrl}}/api/me",
							"host": [
								"{{baseUrl}}"
							],
							"path": [
								"api",
								"me"
							]
						}
					},
					"response": []
				}
			]
		},
		{
			"name": "chat",
			"item": [
				{
					"name": "create new message",
					"event": [
						{
							"listen": "test",
							"script": {
								"exec": [
									""
								],
								"type": "text/javascript"
							}
						}
					],
					"request": {
						"auth": {
							"type": "bearer",
							"bearer": [
								{
									"key": "token",
									"value": "{{token}}",
									"type": "string"
								}
							]
						},
						"method": "POST",
						"header": [
							{
								"key": "Authorization",
								"value": "admin",
								"type": "text"
							}
						],
						"body": {
							"mode": "raw",
							"raw": "{\n    \"email\": \"gabicardetti@gmail.com\",\n    \"message\": \"tengo problemas con mi compra\",\n    \"type\": \"user\"\n}",
							"options": {
								"raw": {
									"language": "json"
								}
							}
						},
						"url": {
							"raw": "{{baseUrl}}/api/chat",
							"host": [
								"{{baseUrl}}"
							],
							"path": [
								"api",
								"chat"
							]
						}
					},
					"response": []
				},
				{
					"name": "get all messages by email",
					"event": [
						{
							"listen": "test",
							"script": {
								"exec": [
									""
								],
								"type": "text/javascript"
							}
						}
					],
					"protocolProfileBehavior": {
						"disableBodyPruning": true
					},
					"request": {
						"auth": {
							"type": "bearer",
							"bearer": [
								{
									"key": "token",
									"value": "{{token}}",
									"type": "string"
								}
							]
						},
						"method": "GET",
						"header": [
							{
								"key": "Authorization",
								"value": "admin",
								"type": "text"
							}
						],
						"body": {
							"mode": "raw",
							"raw": "{\n    \"email\": \"gabicardetti@gmail.com\",\n    \"message\": \"tengo problemas con mi compra\",\n    \"type\": \"user\"\n}",
							"options": {
								"raw": {
									"language": "json"
								}
							}
						},
						"url": {
							"raw": "{{baseUrl}}/api/chat/?email=ss",
							"host": [
								"{{baseUrl}}"
							],
							"path": [
								"api",
								"chat",
								""
							],
							"query": [
								{
									"key": "email",
									"value": "ss"
								}
							]
						}
					},
					"response": []
				}
			]
		},
		{
			"name": "product",
			"item": [
				{
					"name": "Get Products",
					"request": {
						"auth": {
							"type": "bearer",
							"bearer": [
								{
									"key": "token",
									"value": "{{token}}",
									"type": "string"
								}
							]
						},
						"method": "GET",
						"header": [
							{
								"key": "Authorization",
								"value": "admin",
								"type": "text",
								"disabled": true
							}
						],
						"url": {
							"raw": "{{baseUrl}}/api/product",
							"host": [
								"{{baseUrl}}"
							],
							"path": [
								"api",
								"product"
							]
						}
					},
					"response": []
				},
				{
					"name": "Get product by id",
					"protocolProfileBehavior": {
						"disableBodyPruning": true
					},
					"request": {
						"auth": {
							"type": "bearer",
							"bearer": [
								{
									"key": "token",
									"value": "{{token}}",
									"type": "string"
								}
							]
						},
						"method": "GET",
						"header": [],
						"body": {
							"mode": "raw",
							"raw": ""
						},
						"url": {
							"raw": "{{baseUrl}}/api/product/609ae89f4725732e2b83421e",
							"host": [
								"{{baseUrl}}"
							],
							"path": [
								"api",
								"product",
								"609ae89f4725732e2b83421e"
							]
						}
					},
					"response": []
				},
				{
					"name": "Create a product",
					"request": {
						"auth": {
							"type": "bearer",
							"bearer": [
								{
									"key": "token",
									"value": "{{token}}",
									"type": "string"
								}
							]
						},
						"method": "POST",
						"header": [
							{
								"key": "Authorization",
								"value": "admin",
								"type": "text",
								"disabled": true
							}
						],
						"body": {
							"mode": "raw",
							"raw": "{\n    \"name\": \"nuevo\",\n    \"description\": \"este es\",\n    \"code\": \"code123\",\n    \"photoUrl\": \"phto uirlñ\",\n    \"price\": 123,\n    \"stock\": 10\n}",
							"options": {
								"raw": {
									"language": "json"
								}
							}
						},
						"url": {
							"raw": "{{baseUrl}}/api/product",
							"host": [
								"{{baseUrl}}"
							],
							"path": [
								"api",
								"product"
							]
						}
					},
					"response": []
				},
				{
					"name": "update product",
					"request": {
						"auth": {
							"type": "bearer",
							"bearer": [
								{
									"key": "token",
									"value": "{{token}}",
									"type": "string"
								}
							]
						},
						"method": "PUT",
						"header": [
							{
								"key": "Authorization",
								"value": "admin",
								"type": "text"
							}
						],
						"body": {
							"mode": "raw",
							"raw": "{\n    \"name\": \"CARLA\",\n    \"description\": \"CLARO\",\n    \"code\": \"CLARIN\",\n    \"photoUrl\": \"CLAROTE\",\n    \"price\": 1111,\n    \"stock\": 2222\n}",
							"options": {
								"raw": {
									"language": "json"
								}
							}
						},
						"url": {
							"raw": "{{baseUrl}}/api/product/61132199dcd95e2526408cfb",
							"host": [
								"{{baseUrl}}"
							],
							"path": [
								"api",
								"product",
								"61132199dcd95e2526408cfb"
							]
						}
					},
					"response": []
				},
				{
					"name": "delete product by id",
					"request": {
						"auth": {
							"type": "bearer",
							"bearer": [
								{
									"key": "token",
									"value": "{{token}}",
									"type": "string"
								}
							]
						},
						"method": "DELETE",
						"header": [
							{
								"key": "Authorization",
								"value": "admin",
								"type": "text"
							}
						],
						"body": {
							"mode": "raw",
							"raw": "{\n    \"title\": \"test\",\n    \"price\": 10,\n    \"thumbnail\": \"url a foto\"\n}",
							"options": {
								"raw": {
									"language": "json"
								}
							}
						},
						"url": {
							"raw": "{{baseUrl}}/api/product/61132199dcd95e2526408cfb",
							"host": [
								"{{baseUrl}}"
							],
							"path": [
								"api",
								"product",
								"61132199dcd95e2526408cfb"
							]
						}
					},
					"response": []
				}
			]
		},
		{
			"name": "shopping cart",
			"item": [
				{
					"name": "get all products in a shopping cart",
					"request": {
						"auth": {
							"type": "bearer",
							"bearer": [
								{
									"key": "token",
									"value": "{{token}}",
									"type": "string"
								}
							]
						},
						"method": "GET",
						"header": [],
						"url": {
							"raw": "{{baseUrl}}/api/cart/product",
							"host": [
								"{{baseUrl}}"
							],
							"path": [
								"api",
								"cart",
								"product"
							]
						}
					},
					"response": []
				},
				{
					"name": "get a products in a shopping cart by product id",
					"request": {
						"auth": {
							"type": "bearer",
							"bearer": [
								{
									"key": "token",
									"value": "{{token}}",
									"type": "string"
								}
							]
						},
						"method": "GET",
						"header": [],
						"url": {
							"raw": "{{baseUrl}}/api/cart/611821e38defe0c9f5d27c35",
							"host": [
								"{{baseUrl}}"
							],
							"path": [
								"api",
								"cart",
								"611821e38defe0c9f5d27c35"
							]
						}
					},
					"response": []
				},
				{
					"name": "add new product to shopping cart",
					"request": {
						"auth": {
							"type": "bearer",
							"bearer": [
								{
									"key": "token",
									"value": "{{token}}",
									"type": "string"
								}
							]
						},
						"method": "POST",
						"header": [],
						"url": {
							"raw": "{{baseUrl}}/api/cart/product/61214f3bab3b4285854e0f31",
							"host": [
								"{{baseUrl}}"
							],
							"path": [
								"api",
								"cart",
								"product",
								"61214f3bab3b4285854e0f31"
							]
						}
					},
					"response": []
				},
				{
					"name": "delete product un shopping cart",
					"request": {
						"auth": {
							"type": "bearer",
							"bearer": [
								{
									"key": "token",
									"value": "{{token}}",
									"type": "string"
								}
							]
						},
						"method": "DELETE",
						"header": [],
						"url": {
							"raw": "{{baseUrl}}/api/cart/product/61142fabb8acebe2872bae14",
							"host": [
								"{{baseUrl}}"
							],
							"path": [
								"api",
								"cart",
								"product",
								"61142fabb8acebe2872bae14"
							]
						}
					},
					"response": []
				}
			]
		},
		{
			"name": "order",
			"item": [
				{
					"name": "get all orders",
					"request": {
						"auth": {
							"type": "bearer",
							"bearer": [
								{
									"key": "token",
									"value": "{{token}}",
									"type": "string"
								}
							]
						},
						"method": "GET",
						"header": [],
						"url": {
							"raw": "{{baseUrl}}/api/order",
							"host": [
								"{{baseUrl}}"
							],
							"path": [
								"api",
								"order"
							]
						}
					},
					"response": []
				},
				{
					"name": "generate order",
					"request": {
						"auth": {
							"type": "bearer",
							"bearer": [
								{
									"key": "token",
									"value": "{{token}}",
									"type": "string"
								}
							]
						},
						"method": "POST",
						"header": [],
						"url": {
							"raw": "{{baseUrl}}/api/order",
							"host": [
								"{{baseUrl}}"
							],
							"path": [
								"api",
								"order"
							]
						}
					},
					"response": []
				}
			]
		}
	]
}